{
  "_fv": 24,
  "_type": "tool",
  "definition": {
    "renderType": 0,
    "texture": "steeltools_shovel",
    "customModelName": "Normal",
    "name": "SteelToolS Shovel",
    "specialInfo": [],
    "creativeTab": {
      "value": "CUSTOM:ProjectMEGA"
    },
    "toolType": "Spade",
    "harvestLevel": 5,
    "efficiency": 12.0,
    "attackSpeed": 1.0,
    "enchantability": 15,
    "damageVsEntity": 6.0,
    "usageCount": 2505,
    "blocksAffected": [],
    "hasGlow": false,
    "repairItems": [
      {
        "value": "CUSTOM:SteelBlock"
      }
    ],
    "immuneToFire": false,
    "stayInGridWhenCrafting": false,
    "damageOnCrafting": false
  }
}